50	100	1
0	18.669001	50.311472	0	0	5394.1900000000005	0	0	0
1	18.711647	50.291616	10	419.22	602.38	90	0	2
2	18.63331	50.304371	-10	1145.5300000000002	1356.23	90	1	0
3	18.673708	50.295074	20	262.98	411.41999999999996	90	0	4
4	18.661183	50.270228	-20	693.7499999999999	846.4899999999999	90	3	0
5	18.65368	50.27355	20	988.4200000000001	1109.96	90	0	6
6	18.633878	50.304858	-20	1550.96	1738.96	90	5	0
7	18.673488	50.313434	20	72.18	178.22	90	0	8
8	18.664157	50.287412	-20	553.25	726.5899999999999	90	7	0
9	18.647024	50.291432	20	879.14	1003.0400000000001	90	0	10
10	18.692405	50.297647	-20	1388.78	1564.4999999999998	90	9	0
11	18.646506	50.290346	10	294.03	449.37	90	0	12
12	18.558796	50.30284	-10	1229.4	1492.7400000000002	90	11	0
13	18.668887	50.283954	10	2338.9200000000005	2616.9600000000005	90	0	14
14	18.639635	50.338439	-10	3286.29	3525.0299999999997	90	13	0
15	18.668887	50.283954	20	4158.09	4388.77	90	0	16
16	18.63594	50.304275	-20	4726.900000000001	4892.04	90	15	0
17	18.64336	50.295954	10	285.65999999999997	439.14	90	0	18
18	18.674436	50.292959	-10	693.75	840.3299999999999	90	17	0
19	18.647024	50.291432	10	1095.48	1242.1799999999998	90	0	20
20	18.658106	50.247682	-10	1816.29	2033.87	90	19	0
21	18.658095	50.283681	10	2475.68	2663.86	90	0	22
22	18.647704	50.287748	-10	2821.5399999999995	2946.5799999999995	90	21	0
23	18.64143	50.301164	20	316.71	477.09	90	0	24
24	18.664157	50.287412	-20	730.98	877.4000000000001	90	23	0
25	18.64197	50.33387	10	1419.83	1630.37	90	0	26
26	18.669001	50.311472	-10	1930.52	2087.22	90	25	0
27	18.677717	50.307275	20	2195.8499999999995	2309.99	90	0	28
28	18.664157	50.287412	-20	2587.2799999999997	2738.8999999999996	90	27	0
29	18.671664	50.306767	10	46.89	147.31	90	0	30
30	18.66626	50.316194	-10	239.73999999999998	350.28	90	29	0
31	18.655713	50.281677	10	795.0600000000001	983.9	90	0	32
32	18.637221	50.251687	-10	1398.26	1580.34	90	31	0
33	18.647024	50.291432	20	275.4	426.6	90	0	34
34	18.608988	50.23735	-20	1219.14	1485.26	90	33	0
35	18.64336	50.295954	20	2336.6600000000003	2615.86	90	0	36
36	18.651092	50.327063	-20	3073.24	3264.88	90	35	0
37	18.668064	50.301255	20	161.19	287.01000000000005	90	0	38
38	18.666722	50.28937	-20	526.23	669.3900000000001	90	37	0
39	18.657654	50.322541	20	1122.99	1313.7900000000002	90	0	40
40	18.675071	50.300788	-20	1603.6799999999998	1758.1	90	39	0
41	18.642421	50.2834	20	411.57	593.03	90	0	42
42	18.646932	50.293951	-20	818.3	958.3599999999999	90	41	0
43	18.579933	50.326047	20	1581.34	1809.78	90	0	44
44	18.700369	50.321898	-20	2599.7999999999997	2865.36	90	43	0
45	18.651932	50.27521	10	464.66999999999996	657.93	90	0	46
46	18.567053	50.271038	-10	1358.3100000000002	1603.95	90	45	0
47	18.646506	50.290346	10	2261.67	2497.83	90	0	48
48	18.542599	50.26255	-10	3350.7599999999998	3630.2999999999997	90	47	0
49	18.66849	50.292261	20	4635.870000000001	4949.33	90	0	50
50	18.667967	50.296712	-20	5047.88	5159.78	90	49	0
51	18.624934	50.340998	10	476.55	672.45	90	0	52
52	18.532921	50.27119	-10	1617.09	1917.01	90	51	0
53	18.669797	50.278378	20	441.80999999999995	629.99	90	0	54
54	18.701788	50.298853	-20	1092.3200000000002	1285.06	90	53	0
55	18.665618	50.294507	10	1595.1999999999998	1754.12	90	0	56
56	18.63331	50.304371	-10	2062.37	2220.87	90	55	0
57	18.64336	50.295954	10	2393.67	2522.0699999999997	90	0	58
58	18.61696	50.248033	-10	3223.44	3469.2999999999997	90	57	0
59	18.668887	50.283954	10	351.09000000000003	519.11	90	0	60
60	18.646932	50.293951	-10	736.5500000000001	874.87	90	59	0
61	18.646047	50.334955	10	1454.47	1673.2700000000002	90	0	62
62	18.677693	50.29866	-10	2277.08	2501.26	90	61	0
63	18.665618	50.294507	20	245.60999999999999	390.19	90	0	64
64	18.700369	50.321898	-20	895.8100000000001	1098.17	90	63	0
65	18.651932	50.27521	10	464.66999999999996	657.93	90	0	66
66	18.653062	50.254554	-10	1069.05	1250.41	90	65	0
67	18.67548	50.291743	10	277.2	428.8	90	0	68
68	18.641204	50.302885	-10	728.1400000000001	884.6600000000001	90	67	0
69	18.669797	50.278378	10	1308.6500000000003	1492.8700000000001	90	0	70
70	18.647469	50.288906	-10	1797.8799999999999	1955.66	90	69	0
71	18.666848	50.28666	20	2114.06	2239.2599999999998	90	0	72
72	18.664157	50.287412	-20	2259.6	2354.1200000000003	90	71	0
73	18.624934	50.340998	20	476.55	672.45	90	0	74
74	18.658137	50.248131	-20	1737.87	2064.63	90	73	0
75	18.650542	50.277874	10	428.67	613.93	90	0	76
76	18.633878	50.304858	-10	1003.6299999999999	1180.2299999999998	90	75	0
77	18.647024	50.291432	20	275.4	426.6	90	0	78
78	18.651324	50.299849	-20	584.5500000000001	709.65	90	77	0
79	18.653765	50.291022	10	259.56	407.23999999999995	90	0	80
80	18.628502	50.305312	-10	643.67	786.2099999999999	90	79	0
81	18.642421	50.2834	10	411.57	593.03	90	0	82
82	18.674436	50.292959	-10	867.26	1018.2	90	81	0
83	18.696743	50.332366	10	1544.1599999999999	1751.04	90	0	84
84	18.691823	50.31327	-10	2037.69	2191.39	90	83	0
85	18.665335	50.297123	20	2501.5299999999997	2660.45	90	0	86
86	18.701788	50.298853	-20	2950.52	3104.98	90	85	0
87	18.647699	50.30299	10	244.62	388.98	90	0	88
88	18.660269	50.288109	-10	645.48	792.48	90	87	0
89	18.658153	50.282097	20	380.7	555.3	90	0	90
90	18.639635	50.338439	-20	1243.2599999999998	1486.1399999999999	90	89	0
91	18.657853	50.276193	20	422.01	605.79	90	0	92
92	18.658137	50.248131	-20	960.2099999999999	1128.97	90	91	0
93	18.655713	50.281677	10	1538.92	1720.02	90	0	94
94	18.567053	50.271038	-10	2443.71	2694.5299999999997	90	93	0
95	18.653765	50.291022	20	259.56	407.23999999999995	90	0	96
96	18.697339	50.318814	-20	872.4499999999998	1065.83	90	95	0
97	18.647024	50.291432	10	1533.74	1727.72	90	0	98
98	18.639635	50.338439	-10	2299.22	2516.22	90	97	0
99	18.692844	50.319254	10	3019.68	3221.56	90	0	100
100	18.697339	50.318814	-10	3313.72	3424.1999999999994	90	99	0
