50	200	1
0	18.66809	50.291258	0	0	12760.650000000001	0	0	0
1	18.656608	50.298305	30	207.005	318.79499999999996	90	0	2
2	18.671699	50.294876	-30	556.58	671.61	90	1	0
3	18.67548	50.291743	20	872.06	983.1599999999999	90	0	4
4	18.651324	50.299849	-20	1230.1599999999999	1346.1599999999999	90	3	0
5	18.655713	50.281677	40	1636.0049999999997	1756.5149999999999	90	0	6
6	18.659515	50.296439	-40	2015.58	2132.8500000000004	90	5	0
7	18.647024	50.291432	50	192.47	302.73	90	0	8
8	18.637221	50.251687	-50	870.5450000000001	1020.315	90	7	0
9	18.646506	50.290346	30	1613.0200000000002	1765.41	90	0	10
10	18.660269	50.288109	-30	1930.52	2037.9	90	9	0
11	18.67659	50.284021	50	2195.98	2302.6200000000003	90	0	12
12	18.612586	50.324712	-50	2981.1099999999997	3142.5299999999997	90	11	0
13	18.67659	50.284021	20	131.575	235.425	90	0	14
14	18.560735	50.306699	-20	1132.51	1316.9399999999998	90	13	0
15	18.687966	50.29542	50	2170.61	2350.47	90	0	16
16	18.671143	50.307708	-50	2564.6	2677.14	90	15	0
17	18.654156	50.277739	20	3107.2049999999995	3242.475	90	0	18
18	18.666699	50.297205	-20	3542.6749999999997	3664.275	90	17	0
19	18.676022	50.30045	10	3770.77	3871.98	90	0	20
20	18.657358	50.295977	-10	4044.7850000000003	4152.975	90	19	0
21	18.667434	50.283934	50	170.335	278.265	90	0	22
22	18.654462	50.287853	-50	480.33	591.5999999999999	90	21	0
23	18.650542	50.277874	20	792.8099999999998	903.9899999999999	90	0	24
24	18.671699	50.294876	-20	1246.0849999999998	1372.095	90	23	0
25	18.64336	50.295954	30	1634.8649999999998	1752.5249999999996	90	0	26
26	18.543365	50.261964	-30	2777.29	2975.16	90	25	0
27	18.692844	50.319254	40	4378.405000000001	4616.115	90	0	28
28	18.698685	50.275078	-40	5292.514999999999	5453.715	90	27	0
29	18.692844	50.319254	40	6150.160000000001	6313.47	90	0	30
30	18.66626	50.316194	-40	6584.599999999999	6703.14	90	29	0
31	18.657391	50.291751	40	7012.555	7135.125	90	0	32
32	18.671143	50.307708	-40	7394.570000000001	7511.88	90	31	0
33	18.641556	50.301071	50	307.42	429.78000000000003	90	0	34
34	18.569235	50.25063	-50	1480.7649999999999	1681.395	90	33	0
35	18.657654	50.322541	10	2963.8	3188.79	90	0	36
36	18.53331	50.271068	-10	4316.63	4525.349999999999	90	35	0
37	18.598882	50.313979	30	5158.525000000001	5315.175	90	0	38
38	18.665189	50.276636	-30	5966.685	6125.265	90	37	0
39	18.65644	50.321987	50	6770.9800000000005	6928.95	90	0	40
40	18.654462	50.287853	-50	7434.35	7577.550000000001	90	39	0
41	18.668887	50.283954	30	7783.700000000001	7895.4000000000015	90	0	42
42	18.700369	50.321898	-30	8412.580000000002	8557.02	90	41	0
43	18.657391	50.291751	50	9051.78	9193.860000000002	90	0	44
44	18.53111	50.273467	-50	10145.000000000004	10335.120000000003	90	43	0
45	18.647699	50.30299	10	11298.610000000004	11490.030000000002	90	0	46
46	18.651388	50.251778	-10	12142.110000000002	12300.750000000002	90	45	0
47	18.676022	50.30045	10	185.725	295.275	90	0	48
48	18.548567	50.257961	-10	1480.7800000000002	1695.5700000000002	90	47	0
49	18.665335	50.297123	20	2808.305	3015.435	90	0	50
50	18.641204	50.302885	-20	3221.2050000000004	3332.8650000000002	90	49	0
51	18.658153	50.282097	10	3693.01	3820.92	90	0	52
52	18.663712	50.289249	-10	3961.9	4066.7400000000002	90	51	0
53	18.67388	50.286789	50	4178.745	4280.535000000001	90	0	54
54	18.63594	50.304275	-50	4627.0	4753.469999999999	90	53	0
55	18.646506	50.290346	40	5025.740000000001	5144.400000000001	90	0	56
56	18.574454	50.256342	-40	5949.335000000001	6124.0650000000005	90	55	0
57	18.651932	50.27521	30	7063.615000000001	7252.515	90	0	58
58	18.654015	50.287608	-30	7558.795	7681.035	90	57	0
59	18.65368	50.27355	50	245.765	361.635	90	0	60
60	18.692976	50.314423	-50	903.61	1050.66	90	59	0
61	18.700804	50.281727	50	1511.315	1649.8049999999998	90	0	62
62	18.558796	50.30284	-50	2653.2899999999995	2848.9199999999996	90	61	0
63	18.668887	50.283954	50	3742.1099999999997	3926.13	90	0	64
64	18.675382	50.296846	-50	4191.275000000001	4309.185	90	63	0
65	18.655432	50.278218	20	4619.360000000001	4742.01	90	0	66
66	18.698685	50.275078	-20	5162.575	5296.845	90	65	0
67	18.65996	50.293341	50	138.13	242.67000000000002	90	0	68
68	18.673504	50.286949	-50	393.15000000000003	498.99000000000007	90	67	0
69	18.665335	50.297123	30	688.8	798.78	90	0	70
70	18.684736	50.301621	-30	1047.0149999999999	1163.145	90	69	0
71	18.65996	50.293341	30	1487.3799999999999	1611.51	90	0	72
72	18.66155	50.277506	-30	1817.185	1928.835	90	71	0
73	18.663318	50.287855	20	2042.835	2144.835	90	0	74
74	18.666626	50.31692	-20	2528.92	2659.3500000000004	90	73	0
75	18.666519	50.291226	10	3020.255	3148.245	90	0	76
76	18.666984	50.291777	-10	3154.23	3244.86	90	75	0
77	18.64143	50.301164	40	3535.0849999999996	3655.6349999999998	90	0	78
78	18.651092	50.327063	-40	4110.304999999999	4248.165	90	77	0
79	18.692844	50.319254	30	4660.844999999999	4794.285	90	0	80
80	18.608988	50.23735	-30	5980.17	6195.0	90	79	0
81	18.655713	50.281677	40	191.235	301.365	90	0	82
82	18.539918	50.270004	-40	1202.82	1387.7099999999998	90	81	0
83	18.677717	50.307275	10	2434.705	2634.915	90	0	84
84	18.684008	50.282185	-10	3000.0	3128.4300000000003	90	83	0
85	18.646047	50.334955	30	3944.86	4120.8	90	0	86
86	18.66155	50.277506	-30	4916.615	5090.385	90	85	0
87	18.658153	50.282097	50	5193.46	5294.31	90	0	88
88	18.677294	50.297937	-50	5563.54	5681.88	90	87	0
89	18.695971	50.25396	30	451.06	588.54	90	0	90
90	18.664157	50.287412	-30	1073.61	1214.6699999999998	90	89	0
91	18.667434	50.283934	40	1336.84	1439.7	90	0	92
92	18.682921	50.304229	-40	1802.125	1930.275	90	91	0
93	18.711647	50.291616	50	2316.735	2447.4150000000004	90	0	94
94	18.612275	50.241666	-50	3457.645	3653.985	90	93	0
95	18.711647	50.291616	40	4680.650000000001	4878.72	90	0	96
96	18.68197	50.295814	-40	5126.195000000001	5242.245	90	95	0
97	18.595833	50.283613	10	5967.285	6133.605	90	0	98
98	18.61696	50.248033	-10	6953.359999999999	7129.65	90	97	0
99	18.657654	50.322541	20	485.83	626.97	90	0	100
100	18.666722	50.28937	-20	1110.425	1251.3149999999998	90	99	0
