50	200	1
0	18.639635	50.338439	0	0	12043.800000000001	0	0	0
1	18.579933	50.326047	20	347.1	1131.3000000000002	90	0	2
2	18.660269	50.288109	-20	1523.7500000000002	2398.65	90	1	0
3	18.598882	50.313979	40	2673.5000000000005	3313.2000000000003	90	0	4
4	18.692976	50.314423	-40	3615.35	4309.65	90	3	0
5	18.696743	50.332366	10	4463.450000000001	4861.050000000001	90	0	6
6	18.61558	50.243387	-10	5554.700000000002	7032.000000000001	90	5	0
7	18.655432	50.278218	40	7366.750000000001	8126.250000000001	90	0	8
8	18.701788	50.298853	-40	8378.800000000001	8973.9	90	7	0
9	18.668887	50.283954	20	9184.150000000001	9694.650000000001	90	0	10
10	18.677294	50.297937	-20	9826.500000000002	10180.200000000003	90	9	0
11	18.646506	50.290346	50	309.4	1018.1999999999999	90	0	12
12	18.676475	50.298283	-50	1173.1	1572.9	90	11	0
13	18.67388	50.286789	10	1655.65	1911.15	90	0	14
14	18.666699	50.297205	-10	2001.0	2270.7	90	13	0
15	18.646047	50.334955	40	2576.95	3279.45	90	0	16
16	18.615981	50.311036	-40	3618.1	4385.4	90	15	0
17	18.666848	50.28666	20	4628.65	5205.15	90	0	18
18	18.700369	50.321898	-20	5447.499999999999	6022.2	90	17	0
19	18.658095	50.283681	10	6308.75	6971.85	90	0	20
20	18.562621	50.311049	-10	7437.900000000001	8460.0	90	19	0
21	18.657654	50.322541	10	135.65	496.95000000000005	90	0	22
22	18.674436	50.292959	-10	723.1500000000001	1265.55	90	21	0
23	18.685716	50.301968	50	1358.1	1633.1999999999998	90	0	24
24	18.690812	50.279089	-50	1844.0000000000002	2355.6000000000004	90	23	0
25	18.687966	50.29542	10	2483.9	2830.5000000000005	90	0	26
26	18.657358	50.295977	-10	2962.6000000000004	3316.8	90	25	0
27	18.64197	50.33387	10	3549.5000000000005	4104.900000000001	90	0	28
28	18.569235	50.25063	-10	4801.849999999999	6285.749999999999	90	27	0
29	18.666519	50.291226	30	6771.25	7832.25	90	0	30
30	18.659196	50.281777	-30	7897.7	8118.599999999999	90	29	0
31	18.657869	50.289631	20	8196.650000000001	8442.75	90	0	32
32	18.665006	50.316298	-20	8639.5	9123.0	90	31	0
33	18.656608	50.298305	20	243.95	821.8499999999999	90	0	34
34	18.647469	50.288906	-20	937.55	1258.95	90	33	0
35	18.642421	50.2834	20	1359.3	1649.9999999999998	90	0	36
36	18.657358	50.295977	-20	1760.8999999999996	2072.7	90	35	0
37	18.656608	50.298305	30	2092.9999999999995	2223.6	90	0	38
38	18.563792	50.251147	-30	2761.8999999999996	3928.5	90	37	0
39	18.651932	50.27521	40	4419.2	5490.599999999999	90	0	40
40	18.675071	50.300788	-40	5702.95	6217.650000000001	90	39	0
41	18.657869	50.289631	40	6334.800000000001	6659.1	90	0	42
42	18.692405	50.297647	-40	6824.500000000001	7245.3	90	41	0
43	18.624934	50.340998	50	7598.75	8395.65	90	0	44
44	18.66155	50.277506	-50	8803.05	9707.849999999999	90	43	0
45	18.641556	50.301071	50	9906.449999999999	10393.65	90	0	46
46	18.639635	50.338439	-50	10687.149999999998	11364.149999999998	90	45	0
47	18.692844	50.319254	20	279.7	929.0999999999999	90	0	48
48	18.688513	50.309943	-20	1032.9999999999998	1330.8	90	47	0
49	18.657391	50.291751	50	1520.3	1989.3	90	0	50
50	18.70295	50.324706	-50	2266.75	2911.6499999999996	90	49	0
51	18.656608	50.298305	30	3152.9999999999995	3725.6999999999994	90	0	52
52	18.646932	50.293951	-30	3782.2	3985.2	90	51	0
53	18.673488	50.313434	20	4136.75	4529.85	90	0	54
54	18.641204	50.302885	-20	4701.1	5133.6	90	53	0
55	18.663738	50.293296	40	5269.45	5631.150000000001	90	0	56
56	18.68197	50.295814	-40	5729.35	6015.75	90	55	0
57	18.673488	50.313434	30	6156.85	6529.050000000001	90	0	58
58	18.651324	50.299849	-30	6664.000000000001	7023.900000000001	90	57	0
59	18.693159	50.321067	30	7270.300000000002	7853.100000000001	90	0	60
60	18.548567	50.257961	-30	8584.600000000002	10137.600000000002	90	59	0
61	18.711647	50.291616	40	380.3	1230.9	90	0	62
62	18.567053	50.271038	-40	1760.0499999999997	2908.35	90	61	0
63	18.65368	50.27355	20	3302.05	4179.45	90	0	64
64	18.667967	50.296712	-20	4343.6	4761.9	90	63	0
65	18.677717	50.307275	20	4858.9	5142.9	90	0	66
66	18.666699	50.297205	-20	5244.599999999999	5537.999999999999	90	65	0
67	18.646506	50.290346	40	309.4	1018.1999999999999	90	0	68
68	18.691823	50.31327	-40	1270.75	1865.85	90	67	0
69	18.64143	50.301164	40	2113.6499999999996	2699.25	90	0	70
70	18.660269	50.288109	-40	2837.65	3204.4500000000003	90	69	0
71	18.653765	50.291022	40	3249.15	3428.5499999999997	90	0	72
72	18.532921	50.27119	-40	3883.6999999999994	4883.999999999999	90	71	0
73	18.657869	50.289631	20	306.85	1010.5500000000001	90	0	74
74	18.658859	50.296953	-20	1076.8000000000002	1299.3000000000002	90	73	0
75	18.653765	50.291022	50	1351.3000000000002	1545.3000000000002	90	0	76
76	18.63331	50.304371	-50	1658.4000000000003	1974.6000000000001	90	75	0
77	18.677717	50.307275	40	2159.55	2619.45	90	0	78
78	18.677255	50.297896	-40	2698.9	2947.7999999999997	90	77	0
79	18.693159	50.321067	10	273.9	911.6999999999999	90	0	80
80	18.651324	50.299849	-10	1155.55	1733.2499999999998	90	79	0
81	18.666848	50.28666	10	1848.3	2168.4	90	0	82
82	18.672842	50.292189	-10	2220.65	2415.15	90	81	0
83	18.67548	50.291743	30	2444.8	2594.1000000000004	90	0	84
84	18.659196	50.281777	-30	2738.1499999999996	3116.25	90	83	0
85	18.65368	50.27355	40	3170.4	3368.7000000000003	90	0	86
86	18.677151	50.298365	-40	3557.35	4024.65	90	85	0
87	18.676022	50.30045	40	4066.7499999999995	4240.95	90	0	88
88	18.542599	50.26255	-40	4846.150000000001	6146.55	90	87	0
89	18.67388	50.286789	10	6716.599999999999	7946.7	90	0	90
90	18.677693	50.29866	-10	8047.549999999999	8339.25	90	89	0
91	18.67548	50.291743	20	8420.5	8673.0	90	0	92
92	18.647469	50.288906	-20	8822.449999999999	9211.35	90	91	0
93	18.657869	50.289631	40	306.85	1010.5500000000001	90	0	94
94	18.663712	50.289249	-40	1058.1000000000001	1243.2	90	93	0
95	18.64336	50.295954	50	1361.85	1689.15	90	0	96
96	18.674914	50.299274	-50	1829.5000000000002	2200.2000000000003	90	95	0
97	18.673488	50.313434	50	2312.4999999999995	2627.1	90	0	98
98	18.658045	50.247866	-50	3062.8999999999996	4024.5	90	97	0
99	18.695971	50.25396	40	4200.2	4641.599999999999	90	0	100
100	18.561969	50.25166	-40	5139.6	6225.6	90	99	0
