50	100	1
0	18.666699	50.297205	0	0	7292.7	0	0	0
1	18.65996	50.293341	20	72.8	308.4	90	0	2
2	18.569235	50.25063	-20	805.8499999999999	1890.75	90	1	0
3	18.67388	50.286789	10	2390.7000000000003	3480.6	90	0	4
4	18.658859	50.296953	-10	3593.2500000000005	3908.5500000000006	90	3	0
5	18.66849	50.292261	10	37.4	202.20000000000002	90	0	6
6	18.675071	50.300788	-10	282.54999999999995	533.25	90	5	0
7	18.595833	50.283613	20	892.55	1701.1499999999999	90	0	8
8	18.664157	50.287412	-20	1998.2500000000005	2682.4500000000003	90	7	0
9	18.668887	50.283954	20	105.3	405.90000000000003	90	0	10
10	18.661863	50.324086	-20	675.7	1305.3	90	9	0
11	18.64143	50.301164	20	1521.5000000000002	2043.9000000000003	90	0	12
12	18.671143	50.307708	-20	2223.15	2671.65	90	11	0
13	18.664106	50.276603	20	2882.3	3393.6000000000004	90	0	14
14	18.563792	50.251147	-20	3818.8500000000004	4759.35	90	13	0
15	18.675772	50.298458	20	48.05	234.14999999999998	90	0	16
16	18.666984	50.291777	-20	321.15	585.15	90	15	0
17	18.675772	50.298458	20	48.05	234.14999999999998	90	0	18
18	18.677255	50.297896	-20	252.04999999999998	377.84999999999997	90	17	0
19	18.655713	50.281677	20	537.3	946.2	90	0	20
20	18.543365	50.261964	-20	1485.9999999999998	2655.5999999999995	90	19	0
21	18.657853	50.276193	10	3159.6999999999994	4257.9	90	0	22
22	18.561969	50.25166	-10	4683.65	5625.15	90	21	0
23	18.647024	50.291432	20	90.35	361.04999999999995	90	0	24
24	18.658137	50.248131	-20	686.15	1426.35	90	23	0
25	18.657391	50.291751	10	63.2	279.6	90	0	26
26	18.608988	50.23735	-10	668.0999999999999	1535.1	90	25	0
27	18.664106	50.276603	10	1861.3	2603.7	90	0	28
28	18.658045	50.247866	-10	2802.1	3288.9	90	27	0
29	18.66849	50.292261	10	37.4	202.20000000000002	90	0	30
30	18.612275	50.241666	-10	606.75	1505.8500000000001	90	29	0
31	18.642421	50.2834	10	1958.05	2952.45	90	0	32
32	18.674914	50.299274	-10	3138.65	3601.0499999999997	90	31	0
33	18.665618	50.294507	10	46.9	230.70000000000002	90	0	34
34	18.697339	50.318814	-10	493.40000000000003	1108.8	90	33	0
35	18.718302	50.326908	20	347.15	1131.4499999999998	90	0	36
36	18.66328	50.284156	-20	1517.7999999999997	2380.5	90	35	0
37	18.642421	50.2834	10	2568.7000000000003	3035.1	90	0	38
38	18.651092	50.327063	-10	3356.3	4088.7	90	37	0
39	18.64143	50.301164	20	4330.65	4904.549999999999	90	0	40
40	18.628502	50.305312	-20	4985.999999999999	5238.899999999999	90	39	0
41	18.677717	50.307275	20	102.0	396.0	90	0	42
42	18.619432	50.307423	-20	620.6	1159.8	90	41	0
43	18.646047	50.334955	20	306.25	1008.75	90	0	44
44	18.68197	50.295814	-20	1337.25	2084.25	90	43	0
45	18.64336	50.295954	20	2273.9	2743.2000000000003	90	0	46
46	18.633878	50.304858	-20	2829.65	3092.5499999999997	90	45	0
47	18.667434	50.283934	10	130.65	481.95000000000005	90	0	48
48	18.666984	50.291777	-10	571.8000000000001	841.5000000000001	90	47	0
49	18.687966	50.29542	10	920.75	1169.25	90	0	50
50	18.684008	50.282185	-10	1310.5	1683.0	90	49	0
51	18.687966	50.29542	10	1819.55	2182.65	90	0	52
52	18.653062	50.254554	-10	2530.6000000000004	3316.5	90	51	0
53	18.666848	50.28666	10	86.55	349.65000000000003	90	0	54
54	18.658106	50.247682	-10	591.0	1163.7	90	53	0
55	18.666848	50.28666	20	86.55	349.65000000000003	90	0	56
56	18.659146	50.287991	-20	386.0	548.7	90	55	0
57	18.579933	50.326047	20	953.8000000000001	1854.0	90	0	58
58	18.543365	50.261964	-20	2336.65	3391.9500000000003	90	57	0
59	18.66849	50.292261	20	3954.45	5169.45	90	0	60
60	18.664157	50.287412	-20	5254.15	5513.549999999999	90	59	0
