Route 0 : 1 2
Route 1 : 3 4
Route 2 : 5 6
Route 3 : 7 8 9 10 11 12
Route 4 : 13 14 15 16 17 18
Route 5 : 19 20
Route 6 : 21 22 23 24 25 26
Route 7 : 27 28 29 30 31 32
Route 8 : 33 34 35 36
Route 9 : 37 38
Route 10 : 39 40
Route 11 : 41 42
Route 12 : 43 44 45 46 47 48
Route 13 : 49 50 51 52 53 54
Route 14 : 55 56
Route 15 : 57 58 59 60
