50	200	1
0	18.532921	50.27119	0	0	10169.369999999999	0	0	0
1	18.657391	50.291751	40	912.95	1099.05	90	0	2
2	18.647546	50.300145	-40	1276.7949999999998	1385.5049999999999	90	1	0
3	18.665335	50.297123	30	1572.18	1681.8300000000002	90	0	4
4	18.53331	50.271068	-30	2663.5600000000004	2856.9000000000005	90	3	0
5	18.65996	50.293341	10	3807.185000000001	3997.2150000000006	90	0	6
6	18.695291	50.297492	-10	4284.115	4404.3150000000005	90	5	0
7	18.668887	50.283954	30	4760.47	4887.96	90	0	8
8	18.684008	50.282185	-30	5033.120000000001	5138.4000000000015	90	7	0
9	18.656608	50.298305	20	5456.175	5579.625000000001	90	0	10
10	18.536421	50.278875	-20	6539.885000000001	6730.965000000001	90	9	0
11	18.67659	50.284021	20	1007.76	1203.84	90	0	12
12	18.663712	50.289249	-20	1352.1349999999998	1457.745	90	11	0
13	18.655432	50.278218	40	1677.195	1790.2949999999998	90	0	14
14	18.656916	50.297143	-40	2130.1099999999997	2255.88	90	13	0
15	18.693159	50.321067	30	2717.6749999999997	2856.2849999999994	90	0	16
16	18.657358	50.295977	-30	3334.7999999999997	3475.1699999999996	90	15	0
17	18.653765	50.291022	50	3557.63	3656.3100000000004	90	0	18
18	18.667967	50.296712	-50	3815.055	3921.765	90	17	0
19	18.687966	50.29542	50	1104.85	1311.15	90	0	20
20	18.658045	50.247866	-50	1992.585	2154.3149999999996	90	19	0
21	18.64197	50.33387	30	3138.895	3332.5350000000003	90	0	22
22	18.666699	50.297205	-30	3747.115	3880.755	90	21	0
23	18.655713	50.281677	40	4132.9800000000005	4249.53	90	0	24
24	18.667967	50.296712	-40	4508.5	4625.76	90	23	0
25	18.65368	50.27355	30	4939.925	5062.995	90	0	26
26	18.542599	50.26255	-30	6016.89	6207.3	90	25	0
27	18.667434	50.283934	10	7249.639999999999	7449.359999999999	90	0	28
28	18.651092	50.327063	-10	8091.369999999999	8248.95	90	27	0
29	18.673488	50.313434	50	1072.075	1274.925	90	0	30
30	18.659196	50.281777	-50	1742.895	1882.1550000000002	90	29	0
31	18.673488	50.313434	20	2334.4500000000003	2472.06	90	0	32
32	18.63331	50.304371	-20	2837.9049999999997	2966.415	90	31	0
33	18.687966	50.29542	10	3387.17	3521.46	90	0	34
34	18.543365	50.261964	-10	4747.91	4967.01	90	33	0
35	18.655713	50.281677	10	971.945	1164.2549999999999	90	0	36
36	18.619432	50.307423	-10	1624.4349999999997	1762.8749999999998	90	35	0
37	18.711647	50.291616	10	2414.86	2573.4900000000002	90	0	38
38	18.654462	50.287853	-10	3042.9799999999996	3182.3999999999996	90	37	0
39	18.687966	50.29542	10	3480.5099999999998	3601.89	90	0	40
40	18.665189	50.276636	-10	3992.4349999999995	4123.545	90	39	0
41	18.642421	50.2834	40	4567.574999999999	4704.314999999999	90	0	42
42	18.567053	50.271038	-40	5449.019999999999	5617.409999999998	90	41	0
43	18.65644	50.321987	50	6700.124999999999	6904.094999999998	90	0	44
44	18.642956	50.293284	-50	7328.2699999999995	7462.919999999999	90	43	0
45	18.668064	50.301255	40	1041.39	1241.01	90	0	46
46	18.542599	50.26255	-40	2384.43	2594.7899999999995	90	45	0
47	18.647699	50.30299	50	3673.2299999999996	3876.75	90	0	48
48	18.560735	50.306699	-50	4520.565	4678.335	90	47	0
49	18.65368	50.27355	50	5638.214999999999	5829.255	90	0	50
50	18.548567	50.257961	-50	6792.9349999999995	6984.375	90	49	0
51	18.658153	50.282097	50	8007.525	8205.225	90	0	52
52	18.656301	50.324962	-50	8781.305	8931.945	90	51	0
53	18.646047	50.334955	40	1234.145	1454.0549999999998	90	0	54
54	18.68197	50.295814	-40	2078.205	2233.9049999999997	90	53	0
55	18.663738	50.293296	20	2482.9949999999994	2599.2149999999997	90	0	56
56	18.656101	50.325095	-20	3070.1299999999997	3209.6999999999994	90	55	0
57	18.650542	50.277874	20	3837.745	3993.8549999999996	90	0	58
58	18.574454	50.256342	-20	4922.384999999999	5110.124999999999	90	57	0
59	18.642421	50.2834	20	5962.275	6141.975	90	0	60
60	18.569235	50.25063	-20	7110.5	7302.450000000001	90	59	0
