Route 0 : 1 2 3 4
Route 1 : 5 6 7 8
Route 2 : 9 10 11 12 13 14
Route 3 : 15 16
Route 4 : 17 18 19 20 21 22
Route 5 : 23 24
Route 6 : 25 26 27 28
Route 7 : 29 30 31 32
Route 8 : 33 34
Route 9 : 35 36 37 38 39 40
Route 10 : 41 42
Route 11 : 43 44 45 46
Route 12 : 47 48 49 50 51 52
Route 13 : 53 54
Route 14 : 55 56 57 58 59 60
