50	200	1
0	18.66809	50.291258	0	0	9064.964999999998	0	0	0
1	18.665335	50.297123	40	162.26000000000002	269.34000000000003	90	0	2
2	18.659196	50.281777	-40	496.105	609.9749999999999	90	1	0
3	18.67388	50.286789	20	755.4200000000001	860.73	90	0	4
4	18.666722	50.28937	-20	946.61	1045.65	90	3	0
5	18.692844	50.319254	50	1536.325	1677.9750000000001	90	0	6
6	18.68197	50.295814	-50	2091.985	2225.565	90	5	0
7	18.67659	50.284021	30	2497.265	2615.8650000000002	90	0	8
8	18.661183	50.270228	-30	2849.4700000000003	2964.0600000000004	90	7	0
9	18.711647	50.291616	20	3506.51	3653.6100000000006	90	0	10
10	18.563792	50.251147	-20	4911.220000000001	5133.6	90	9	0
11	18.655713	50.281677	20	6088.445000000001	6278.955000000001	90	0	12
12	18.539918	50.270004	-20	7180.41	7365.299999999999	90	11	0
13	18.579933	50.326047	10	790.305	963.495	90	0	14
14	18.63331	50.304371	-10	1461.9600000000003	1604.43	90	13	0
15	18.655713	50.281677	30	1981.865	2111.595	90	0	16
16	18.619432	50.307423	-30	2571.7750000000005	2710.215	90	15	0
17	18.673025	50.295223	10	3149.685	3285.945	90	0	18
18	18.646932	50.293951	-10	3475.66	3585.63	90	17	0
19	18.666848	50.28666	10	86.54499999999999	185.655	90	0	20
20	18.684736	50.301621	-10	442.155	559.155	90	19	0
21	18.695971	50.25396	30	1198.6000000000001	1355.91	90	0	22
22	18.669001	50.311472	-30	2078.955	2245.0649999999996	90	21	0
23	18.66849	50.292261	50	2486.6499999999996	2602.08	90	0	24
24	18.66626	50.316194	-50	2929.2599999999998	3053.6999999999994	90	23	0
25	18.624934	50.340998	20	3508.6549999999993	3646.5449999999996	90	0	26
26	18.66155	50.277506	-20	4420.605	4592.084999999999	90	25	0
27	18.696743	50.332366	40	5340.6849999999995	5509.484999999999	90	0	28
28	18.684736	50.301621	-40	5957.409999999999	6094.559999999999	90	27	0
29	18.665618	50.294507	30	155.705	262.095	90	0	30
30	18.675071	50.300788	-30	486.105	599.685	90	29	0
31	18.67659	50.284021	40	853.1450000000001	969.8250000000002	90	0	32
32	18.680137	50.298336	-40	1198.87	1312.98	90	31	0
33	18.66849	50.292261	10	1422.8	1524.36	90	0	34
34	18.574454	50.256342	-10	2556.155	2754.765	90	33	0
35	18.658095	50.283681	50	151.43	257.37	90	0	36
36	18.639635	50.338439	-50	962.365	1126.575	90	35	0
37	18.692844	50.319254	10	1658.0049999999999	1803.945	90	0	38
38	18.690812	50.279089	-10	2418.7850000000003	2573.5050000000006	90	37	0
39	18.695971	50.25396	50	2982.7650000000003	3115.8450000000003	90	0	40
40	18.674914	50.299274	-50	3700.9500000000003	3852.5400000000004	90	39	0
41	18.65996	50.293341	20	4057.0750000000003	4168.6050000000005	90	0	42
42	18.673504	50.286949	-20	4319.084999999999	4424.924999999999	90	41	0
43	18.666848	50.28666	30	4486.199999999999	4582.65	90	0	44
44	18.615981	50.311036	-30	5041.595	5179.905	90	43	0
45	18.668887	50.283954	10	5692.62	5836.589999999999	90	0	46
46	18.658859	50.296953	-10	6061.075000000001	6174.705	90	45	0
47	18.67659	50.284021	40	131.575	235.425	90	0	48
48	18.691823	50.31327	-40	645.9200000000001	779.1300000000001	90	47	0
49	18.664106	50.276603	30	1266.765	1408.095	90	0	50
50	18.680039	50.298238	-30	1719.03	1841.76	90	49	0
51	18.696618	50.276222	50	2161.3399999999997	2284.98	90	0	52
52	18.688513	50.309943	-50	2752.2850000000003	2891.475	90	51	0
53	18.646047	50.334955	30	3497.1949999999997	3650.955	90	0	54
54	18.543365	50.261964	-30	4998.625	5230.485000000001	90	53	0
55	18.661575	50.288565	30	6267.79	6466.9800000000005	90	0	56
56	18.677255	50.297896	-30	6732.98	6850.98	90	55	0
57	18.657853	50.276193	40	7159.73	7282.23	90	0	58
58	18.676906	50.298543	-40	7588.225	7710.4349999999995	90	57	0
59	18.658153	50.282097	30	8019.849999999999	8142.419999999999	90	0	60
60	18.708576	50.300312	-30	8575.144999999999	8710.694999999998	90	59	0
61	18.65996	50.293341	30	138.13	242.67000000000002	90	0	62
62	18.674914	50.299274	-30	418.89500000000004	527.445	90	61	0
63	18.696618	50.276222	20	852.535	976.755	90	0	64
64	18.660269	50.288109	-20	1257.195	1376.715	90	63	0
65	18.653765	50.291022	40	1461.645	1560.585	90	0	66
66	18.656101	50.325095	-40	2016.205	2154.165	90	65	0
67	18.595833	50.283613	50	3004.89	3184.44	90	0	68
68	18.637221	50.251687	-50	3872.905	4035.3750000000005	90	67	0
69	18.641556	50.301071	50	4754.05	4919.7	90	0	70
70	18.673504	50.286949	-50	5262.46	5388.54	90	69	0
