Route 0 : 1 2 3 4 5 6
Route 1 : 7 8 9 10 11 12
Route 2 : 13 14 15 16 17 18
Route 3 : 19 20 21 22 23 24
Route 4 : 25 26 27 28 29 30
Route 5 : 31 32
Route 6 : 33 34 35 36 37 38
Route 7 : 39 40
Route 8 : 41 42
Route 9 : 43 44
Route 10 : 45 46 47 48
Route 11 : 49 50 51 52 53 54
Route 12 : 55 56 57 58 59 60
Route 13 : 61 62
Route 14 : 63 64 65 66 67 68
Route 15 : 69 70
