Route 0 : 1 2 3 4 5 6
Route 1 : 7 8 9 10
Route 2 : 11 12 13 14
Route 3 : 15 16 17 18
Route 4 : 19 20 21 22 23 24
Route 5 : 25 26 27 28
Route 6 : 29 30
Route 7 : 31 32 33 34 35 36
Route 8 : 37 38 39 40
Route 9 : 41 42 43 44 45 46
Route 10 : 47 48
Route 11 : 49 50
Route 12 : 51 52 53 54
Route 13 : 55 56 57 58
Route 14 : 59 60
Route 15 : 61 62
Route 16 : 63 64
Route 17 : 65 66 67 68
Route 18 : 69 70
