50	100	1
0	18.651092	50.327063	0	0	6296.52	0	0	0
1	18.647024	50.291432	10	450.18	640.22	90	0	2
2	18.647704	50.287748	-10	705.83	810.41	90	1	0
3	18.695971	50.25396	10	1339.07	1546.55	90	0	4
4	18.532921	50.27119	-10	2591.63	2913.87	90	3	0
5	18.579933	50.326047	10	3677.1600000000003	3936.78	90	0	6
6	18.532921	50.27119	-10	4698.18	4957.380000000001	90	5	0
7	18.664106	50.276603	10	610.83	836.57	90	0	8
8	18.66809	50.291258	-10	1044.5600000000002	1180.78	90	7	0
9	18.67548	50.291743	10	1289.8600000000004	1404.1000000000001	90	0	10
10	18.659515	50.296439	-10	1609.6600000000003	1745.3400000000001	90	9	0
11	18.657391	50.291751	20	1839.7500000000002	1950.7300000000002	90	0	12
12	18.698685	50.275078	-20	2264.3800000000006	2424.0800000000004	90	11	0
13	18.666848	50.28666	10	506.52	709.0799999999999	90	0	14
14	18.548567	50.257961	-10	1666.9499999999998	1969.81	90	13	0
15	18.665618	50.294507	20	439.83	627.57	90	0	16
16	18.658045	50.247866	-20	1216.35	1437.19	90	15	0
17	18.66849	50.292261	20	422.73	606.6700000000001	90	0	18
18	18.612275	50.241666	-20	1334.86	1586.68	90	17	0
19	18.669797	50.278378	20	635.67	866.93	90	0	20
20	18.671143	50.307708	-20	1314.2299999999998	1503.6299999999999	90	19	0
21	18.658095	50.283681	20	553.6800000000001	766.72	90	0	22
22	18.53331	50.271068	-20	1624.42	1905.02	90	21	0
23	18.692844	50.319254	20	3127.0399999999995	3488.6	90	0	24
24	18.671143	50.307708	-20	3794.6	3952.6	90	23	0
25	18.687966	50.29542	10	432.72	618.88	90	0	26
26	18.697339	50.318814	-10	914.35	1070.01	90	25	0
27	18.693159	50.321067	20	1178.28	1292.34	90	0	28
28	18.651324	50.299849	-20	1731.27	1918.81	90	27	0
29	18.666848	50.28666	10	2125.8999999999996	2261.92	90	0	30
30	18.628502	50.305312	-10	2564.6800000000003	2721.96	90	29	0
31	18.661575	50.288565	20	469.8	664.2	90	0	32
32	18.657167	50.29637	-20	835.2	963.2	90	31	0
33	18.65368	50.27355	20	1276.8500000000001	1436.55	90	0	34
34	18.659196	50.281777	-20	1534.0200000000002	1645.68	90	33	0
35	18.693159	50.321067	20	380.52	555.0799999999999	90	0	36
36	18.674436	50.292959	-20	987.6199999999999	1173.7399999999998	90	35	0
37	18.696743	50.332366	20	572.49	789.71	90	0	38
38	18.66155	50.277506	-20	1508.99	1758.8300000000002	90	37	0
39	18.668064	50.301255	10	348.75	516.25	90	0	40
40	18.671699	50.294876	-10	687.34	815.36	90	39	0
41	18.654156	50.277739	20	1154.93	1320.39	90	0	42
42	18.676475	50.298283	-20	1639.71	1800.67	90	41	0
43	18.657391	50.291751	10	422.37	606.23	90	0	44
44	18.692743	50.278222	-10	875.15	1024.91	90	43	0
45	18.692844	50.319254	20	390.96	567.8399999999999	90	0	46
46	18.663258	50.321637	-20	861.2399999999999	1016.4399999999999	90	45	0
47	18.665618	50.294507	20	439.83	627.57	90	0	48
48	18.558796	50.30284	-20	1468.53	1745.41	90	47	0
49	18.685716	50.301968	10	402.21	581.5899999999999	90	0	50
50	18.660269	50.288109	-10	882.8199999999999	1039.76	90	49	0
51	18.718302	50.326908	20	642.7800000000001	875.62	90	0	52
52	18.692405	50.297647	-20	1361.26	1559.18	90	51	0
53	18.624934	50.340998	20	2195.39	2426.77	90	0	54
54	18.68197	50.295814	-20	2997.46	3214.2799999999997	90	53	0
55	18.655432	50.278218	20	3571.22	3740.5399999999995	90	0	56
56	18.676906	50.298543	-20	4076.69	4241.39	90	55	0
57	18.65644	50.321987	10	157.95	283.05	90	0	58
58	18.677693	50.29866	-10	683.73	862.77	90	57	0
59	18.579933	50.326047	10	1581.06	1830.6799999999998	90	0	60
60	18.658106	50.247682	-10	2927.06	3260.7000000000003	90	59	0
61	18.661575	50.288565	10	3670.47	3851.53	90	0	62
62	18.667967	50.296712	-10	4034.0499999999997	4164.61	90	61	0
63	18.67388	50.286789	10	488.60999999999996	687.1899999999999	90	0	64
64	18.61696	50.248033	-10	1260.85	1478.33	90	63	0
65	18.696743	50.332366	20	2635.2799999999997	2982.38	90	0	66
66	18.659515	50.296439	-20	3608.15	3837.2100000000005	90	65	0
67	18.657391	50.291751	10	3931.6200000000003	4042.6	90	0	68
68	18.612275	50.241666	-10	4692.94	4927.46	90	67	0
69	18.64197	50.33387	10	112.86	227.94	90	0	70
70	18.656301	50.324962	-10	380.40000000000003	504.28000000000003	90	69	0
71	18.654156	50.277739	10	1114.21	1339.75	90	0	72
72	18.615981	50.311036	-10	1916.92	2135.1800000000003	90	71	0
73	18.668887	50.283954	10	544.95	756.05	90	0	74
74	18.666984	50.291777	-10	874.31	990.5899999999999	90	73	0
75	18.647699	50.30299	20	1239.2599999999998	1384.52	90	0	76
76	18.701788	50.298853	-20	1840.4599999999998	2031.78	90	75	0
77	18.65368	50.27355	20	2527.32	2727.44	90	0	78
78	18.63331	50.304371	-20	3156.7400000000002	3342.14	90	77	0
79	18.677717	50.307275	20	310.05	468.95	90	0	80
80	18.677693	50.29866	-20	621.41	745.2900000000001	90	79	0
