50	200	1
0	18.53111	50.273467	0	0	13177.350000000002	0	0	0
1	18.673708	50.295074	20	573.95	1811.8500000000001	90	0	2
2	18.651388	50.251778	-20	2074.3	2689.2	90	1	0
3	18.658095	50.283681	40	2909.7999999999997	3440.9999999999995	90	0	4
4	18.669001	50.311472	-40	3653.0499999999997	4167.15	90	3	0
5	18.693159	50.321067	10	4324.499999999999	4729.2	90	0	6
6	18.658106	50.247682	-10	5231.45	6325.95	90	5	0
7	18.654156	50.277739	50	6518.9	6994.799999999999	90	0	8
8	18.676906	50.298543	-50	7170.349999999999	7611.45	90	7	0
9	18.668064	50.301255	10	559.0	1767.0	90	0	10
10	18.66626	50.316194	-10	1882.8	2204.4	90	9	0
11	18.67548	50.291743	10	2383.7	2832.3	90	0	12
12	18.562621	50.311049	-10	3311.3	4359.3	90	11	0
13	18.647024	50.291432	20	4768.6	5677.200000000001	90	0	14
14	18.657957	50.278532	-20	5802.750000000001	6143.850000000001	90	13	0
15	18.654156	50.277739	30	508.2	1614.6000000000001	90	0	16
16	18.666984	50.291777	-30	1726.5	2040.3000000000002	90	15	0
17	18.67388	50.286789	30	2084.55	2263.05	90	0	18
18	18.612586	50.324712	-30	2582.4	3311.1	90	17	0
19	18.668064	50.301255	10	3556.4	4137.0	90	0	20
20	18.684008	50.282185	-10	4316.0	4764.0	90	19	0
21	18.677717	50.307275	50	4956.650000000001	5431.95	90	0	22
22	18.654462	50.287853	-50	5606.35	6045.15	90	21	0
23	18.624934	50.340998	50	6409.7	7228.8	90	0	24
24	18.653062	50.254554	-50	7805.599999999999	9049.199999999999	90	23	0
25	18.655713	50.281677	40	9242.449999999999	9718.949999999999	90	0	26
26	18.674914	50.299274	-40	9871.0	10265.099999999999	90	25	0
27	18.657869	50.289631	30	10371.699999999999	10674.9	90	0	28
28	18.633878	50.304858	-30	10809.299999999997	11168.099999999997	90	27	0
29	18.655713	50.281677	10	537.15	1701.4499999999998	90	0	30
30	18.665189	50.276636	-10	1800.3999999999999	2088.2999999999997	90	29	0
31	18.67388	50.286789	50	2189.7	2482.5	90	0	32
32	18.661863	50.324086	-50	2728.7000000000003	3311.1	90	31	0
33	18.711647	50.291616	10	3613.2000000000003	4307.400000000001	90	0	34
34	18.563792	50.251147	-10	4969.3	6383.099999999999	90	33	0
35	18.656608	50.298305	30	6911.75	8059.049999999999	90	0	36
36	18.653062	50.254554	-30	8396.249999999998	9160.65	90	35	0
37	18.647699	50.30299	10	9478.15	10203.15	90	0	38
38	18.657957	50.278532	-10	10410.7	10915.8	90	37	0
39	18.66849	50.292261	10	11007.949999999999	11282.249999999998	90	0	40
40	18.657358	50.295977	-10	11377.85	11659.050000000001	90	39	0
41	18.598882	50.313979	30	318.15	1044.4499999999998	90	0	42
42	18.548567	50.257961	-30	1466.7999999999997	2401.5	90	41	0
43	18.665618	50.294507	50	3020.3	4347.9	90	0	44
44	18.61558	50.243387	-50	4788.95	5761.05	90	43	0
45	18.595833	50.283613	10	6240.299999999999	7288.799999999999	90	0	46
46	18.615981	50.311036	-10	7705.799999999999	8629.8	90	45	0
47	18.673708	50.295074	10	8904.85	9544.949999999999	90	0	48
48	18.663258	50.321637	-10	9720.399999999998	10161.3	90	47	0
49	18.696618	50.276222	10	622.6	1957.8000000000002	90	0	50
50	18.665006	50.316298	-10	2255.55	2941.05	90	49	0
51	18.665335	50.297123	30	3084.0000000000005	3459.9	90	0	52
52	18.641204	50.302885	-30	3568.2	3874.8	90	51	0
53	18.646506	50.290346	50	4007.8	4363.8	90	0	54
54	18.661183	50.270228	-50	4552.0	5018.4	90	53	0
55	18.654156	50.277739	20	5094.249999999999	5335.95	90	0	56
56	18.661863	50.324086	-20	5651.95	6373.95	90	55	0
57	18.657869	50.289631	30	6603.95	7153.95	90	0	58
58	18.615981	50.311036	-30	7373.45	7902.45	90	57	0
59	18.658095	50.283681	50	8171.900000000001	8800.800000000001	90	0	60
60	18.658106	50.247682	-50	9035.05	9593.55	90	59	0
61	18.67388	50.286789	40	555.35	1756.0500000000002	90	0	62
62	18.567053	50.271038	-40	2177.5000000000005	3110.4	90	61	0
63	18.641556	50.301071	40	3546.15	4507.65	90	0	64
64	18.63331	50.304371	-40	4573.3	4794.599999999999	90	63	0
65	18.696618	50.276222	30	5074.449999999999	5724.15	90	0	66
66	18.548567	50.257961	-30	6345.05	7676.849999999999	90	65	0
67	18.64143	50.301164	40	8272.5	9553.8	90	0	68
68	18.672842	50.292189	-40	9730.05	10172.55	90	67	0
69	18.673025	50.295223	30	581.1	1833.3000000000002	90	0	70
70	18.637221	50.251687	-30	2103.7500000000005	2734.65	90	69	0
71	18.67548	50.291743	50	3038.3500000000004	3735.75	90	0	72
72	18.61696	50.248033	-50	4116.55	4968.150000000001	90	71	0
73	18.642421	50.2834	40	5376.749999999999	6283.95	90	0	74
74	18.666722	50.28937	-40	6401.65	6727.049999999999	90	73	0
75	18.665618	50.294507	40	575.45	1816.3500000000001	90	0	76
76	18.666626	50.31692	-40	2025.9000000000003	2535.0000000000005	90	75	0
77	18.661575	50.288565	40	2734.4500000000003	3223.35	90	0	78
78	18.659146	50.287991	-40	3231.85	3338.85	90	77	0
79	18.696618	50.276222	20	3490.3999999999996	3883.5	90	0	80
80	18.654015	50.287608	-20	4109.05	4650.150000000001	90	79	0
81	18.718302	50.326908	40	5041.65	5914.65	90	0	82
82	18.674914	50.299274	-40	6218.349999999999	6915.749999999999	90	81	0
83	18.65644	50.321987	20	7102.55	7566.150000000001	90	0	84
84	18.698685	50.275078	-20	7909.2	8685.3	90	83	0
85	18.675772	50.298458	30	579.2	1827.6000000000001	90	0	86
86	18.684736	50.301621	-30	1895.9500000000003	2122.65	90	85	0
87	18.67659	50.284021	50	2291.05	2717.8500000000004	90	0	88
88	18.66328	50.284156	-50	2795.2500000000005	3040.0500000000006	90	87	0
89	18.598882	50.313979	50	3330.55	4001.55	90	0	90
90	18.657957	50.278532	-50	4324.9	5061.6	90	89	0
