50	200	1
0	18.539918	50.270004	0	0	10757.289999999999	0	0	0
1	18.666848	50.28666	10	876.06	1160.74	90	0	2
2	18.66809	50.291258	-10	1245.52	1354.3600000000001	90	1	0
3	18.693159	50.321067	40	1827.76	2022.9599999999998	90	0	4
4	18.647546	50.300145	-40	2510.13	2708.3900000000003	90	3	0
5	18.692844	50.319254	10	3198.5299999999997	3397.45	90	0	6
6	18.61696	50.248033	-10	4390.69	4701.409999999999	90	5	0
7	18.67659	50.284021	40	919.6199999999999	1213.98	90	0	8
8	18.665006	50.316298	-40	1649.22	1835.9399999999998	90	7	0
9	18.595833	50.283613	30	2534.88	2780.2	90	0	10
10	18.642956	50.293284	-30	3187.18	3367.6199999999994	90	9	0
11	18.650542	50.277874	20	3653.4599999999996	3806.98	90	0	12
12	18.646932	50.293951	-20	4078.7799999999997	4229.179999999999	90	11	0
13	18.669797	50.278378	20	4545.530000000001	4705.83	90	0	14
14	18.659146	50.287991	-20	4950.0	5094.26	90	13	0
15	18.685716	50.301968	10	1084.05	1414.95	90	0	16
16	18.612586	50.324712	-10	1967.1000000000001	2179.7999999999997	90	15	0
17	18.598882	50.313979	50	2401.0200000000004	2540.1800000000003	90	0	18
18	18.628502	50.305312	-50	2729.9900000000002	2862.1700000000005	90	17	0
19	18.657391	50.291751	10	3081.1400000000003	3219.8	90	0	20
20	18.53111	50.273467	-10	4120.88	4411.12	90	19	0
21	18.668064	50.301255	20	5417.320000000001	5730.920000000001	90	0	22
22	18.641204	50.302885	-20	5978.420000000001	6123.420000000001	90	21	0
23	18.692844	50.319254	40	6605.460000000001	6802.580000000002	90	0	24
24	18.66809	50.291258	-40	7234.31	7420.250000000001	90	23	0
25	18.666848	50.28666	30	876.06	1160.74	90	0	26
26	18.61558	50.243387	-30	1803.43	2036.2500000000002	90	25	0
27	18.711647	50.291616	20	3001.86	3306.44	90	0	28
28	18.663712	50.289249	-20	3691.37	3866.91	90	27	0
29	18.671664	50.306767	30	4127.7300000000005	4275.69	90	0	30
30	18.61558	50.243387	-30	5145.719999999999	5429.0599999999995	90	29	0
31	18.66849	50.292261	50	6100.19	6339.329999999999	90	0	32
32	18.666984	50.291777	-50	6481.889999999999	6603.57	90	31	0
33	18.64197	50.33387	30	1072.35	1400.65	90	0	34
34	18.695291	50.297492	-30	1947.5800000000002	2159.1200000000003	90	33	0
35	18.711647	50.291616	10	2432.8999999999996	2583.74	90	0	36
36	18.666722	50.28937	-10	2977.49	3154.99	90	35	0
37	18.647024	50.291432	40	3370.45	3508.33	90	0	38
38	18.612275	50.241666	-40	4251.91	4507.15	90	37	0
39	18.647024	50.291432	20	5277.909999999999	5539.19	90	0	40
40	18.676826	50.298573	-20	5846.54	6004.839999999999	90	39	0
41	18.657869	50.289631	30	6224.889999999999	6363.789999999999	90	0	42
42	18.684008	50.282185	-30	6582.579999999999	6721.2	90	41	0
43	18.673708	50.295074	50	951.9300000000001	1253.47	90	0	44
44	18.661863	50.324086	-50	1592.77	1758.17	90	43	0
45	18.673488	50.313434	10	1932.2300000000002	2060.9100000000003	90	0	46
46	18.68197	50.295814	-10	2326.0499999999997	2474.97	90	45	0
47	18.695971	50.25396	40	3035.0399999999995	3249.4999999999995	90	0	48
48	18.692405	50.297647	-40	3866.36	4093.44	90	47	0
49	18.665335	50.297123	10	4323.21	4464.2699999999995	90	0	50
50	18.692405	50.297647	-10	4714.83	4860.51	90	49	0
51	18.668064	50.301255	50	5110.71	5256.31	90	0	52
52	18.548567	50.257961	-50	6391.120000000001	6733.300000000001	90	51	0
53	18.693159	50.321067	40	1227.24	1589.9599999999998	90	0	54
54	18.563792	50.251147	-40	2905.49	3287.83	90	53	0
55	18.654156	50.277739	20	4127.98	4404.68	90	0	56
56	18.651092	50.327063	-20	5052.59	5286.57	90	55	0
57	18.718302	50.326908	40	5929.35	6162.1900000000005	90	0	58
58	18.671143	50.307708	-40	6672.130000000001	6875.450000000001	90	57	0
59	18.657869	50.289631	40	831.51	1106.29	90	0	60
60	18.663712	50.289249	-40	1191.8799999999999	1300.8999999999999	90	59	0
61	18.666848	50.28666	10	1361.1999999999998	1464.6	90	0	62
62	18.690812	50.279089	-10	1645.23	1775.37	90	61	0
63	18.651932	50.27521	30	2168.04	2345.3	90	0	64
64	18.569235	50.25063	-30	3152.06	3421.3399999999997	90	63	0
65	18.64336	50.295954	20	769.3199999999999	1030.28	90	0	66
66	18.675071	50.300788	-20	1299.92	1449.8400000000001	90	65	0
67	18.696743	50.332366	40	1947.8999999999999	2148.58	90	0	68
68	18.676826	50.298573	-40	2628.1	2824.6600000000003	90	67	0
69	18.595833	50.283613	50	3480.58	3716.34	90	0	70
70	18.654015	50.287608	-50	4179.48	4372.4	90	69	0
71	18.668887	50.283954	40	4515.14	4636.86	90	0	72
72	18.651388	50.251778	-40	5013.419999999999	5187.099999999999	90	71	0
73	18.64143	50.301164	30	5773.719999999999	5994.08	90	0	74
74	18.628502	50.305312	-30	6140.689999999999	6263.269999999999	90	73	0
75	18.668064	50.301255	50	6577.189999999999	6736.949999999999	90	0	76
76	18.651388	50.251778	-50	7333.379999999998	7555.919999999999	90	75	0
77	18.718302	50.326908	20	8532.509999999998	8839.529999999999	90	0	78
78	18.674914	50.299274	-20	9386.189999999999	9597.669999999998	90	77	0
79	18.693159	50.321067	10	1227.24	1589.9599999999998	90	0	80
80	18.692405	50.297647	-10	1934.75	2101.37	90	79	0
81	18.651932	50.27521	10	2567.93	2761.61	90	0	82
82	18.677693	50.29866	-10	3145.37	3320.6499999999996	90	81	0
83	18.676022	50.30045	50	3372.8499999999995	3474.45	90	0	84
84	18.66328	50.284156	-50	3690.27	3828.23	90	83	0
85	18.647024	50.291432	40	4023.62	4157.04	90	0	86
86	18.647704	50.287748	-40	4222.65	4327.23	90	85	0
87	18.647024	50.291432	30	4461.959999999999	4581.9	90	0	88
88	18.657957	50.278532	-30	4807.89	4948.11	90	87	0
89	18.661575	50.288565	50	868.14	1151.06	90	0	90
90	18.658106	50.247682	-50	1629.4999999999998	1825.82	90	89	0
